{
  "meta": {
    "pagination": {
      "total": 1330,
      "pages": 67,
      "page": 1,
      "limit": 20,
      "links": {
        "previous": null,
        "current": "https://gorest.co.in/public/v1/users?page=1",
        "next": "https://gorest.co.in/public/v1/users?page=2"
      }
    }
  },
  "data": [
    "{users}"
   ]
}